Library\Bee\artifacts\mvdfrm\UnityEditor.TestRunner.ref.dll_193EC4CE382CBFB3.mvfrm
Library\Bee\artifacts\mvdfrm\UnityEditor.UI.ref.dll_4C98D3F7040CD4F5.mvfrm
Library\Bee\artifacts\mvdfrm\UnityEngine.TestRunner.ref.dll_E55D0F7C63F01D9E.mvfrm
Library\Bee\artifacts\mvdfrm\UnityEngine.UI.ref.dll_08FEAA520A2EFD60.mvfrm
Library\Bee\artifacts\mvdfrm\Unity.Plastic.Newtonsoft.Json.dll_13C9B4507CA87670.mvfrm
Library\Bee\artifacts\mvdfrm\UnityEditor.Graphs.dll_E1FD71E59C58F5A8.mvfrm
Library\Bee\artifacts\mvdfrm\UnityEditor.CoreModule.dll_76901BFF9B5B6176.mvfrm
Library\Bee\artifacts\mvdfrm\UnityEditor.DeviceSimulatorModule.dll_9C305A51460BA02B.mvfrm
Library\Bee\artifacts\mvdfrm\UnityEditor.DiagnosticsModule.dll_E37A0B9B34834FB9.mvfrm
Library\Bee\artifacts\mvdfrm\UnityEditor.dll_3A75247171194E3F.mvfrm
Library\Bee\artifacts\mvdfrm\UnityEditor.GraphViewModule.dll_69ECAC7A1BC63670.mvfrm
Library\Bee\artifacts\mvdfrm\UnityEditor.PackageManagerUIModule.dll_4E3CFD1F7CB7B752.mvfrm
Library\Bee\artifacts\mvdfrm\UnityEditor.QuickSearchModule.dll_6E898CA88D5A4C12.mvfrm
Library\Bee\artifacts\mvdfrm\UnityEditor.SceneTemplateModule.dll_4175A617EA57A0D3.mvfrm
Library\Bee\artifacts\mvdfrm\UnityEditor.TextCoreFontEngineModule.dll_7A22BE44B3FB5634.mvfrm
Library\Bee\artifacts\mvdfrm\UnityEditor.TextCoreTextEngineModule.dll_C20AF4B6437F0F52.mvfrm
Library\Bee\artifacts\mvdfrm\UnityEditor.UIBuilderModule.dll_BE7559968E7EAFA4.mvfrm
Library\Bee\artifacts\mvdfrm\UnityEditor.UIElementsModule.dll_9BEF3038B11E78F2.mvfrm
Library\Bee\artifacts\mvdfrm\UnityEditor.UIElementsSamplesModule.dll_56EBCA2205933D9B.mvfrm
Library\Bee\artifacts\mvdfrm\UnityEditor.UIServiceModule.dll_F7676AF977B5FFBE.mvfrm
Library\Bee\artifacts\mvdfrm\UnityEditor.UnityConnectModule.dll_DD70F5E29BCACB2C.mvfrm
Library\Bee\artifacts\mvdfrm\UnityEngine.AccessibilityModule.dll_741B11AEEACDC870.mvfrm
Library\Bee\artifacts\mvdfrm\UnityEngine.AIModule.dll_8D4595EB940A9D0A.mvfrm
Library\Bee\artifacts\mvdfrm\UnityEngine.AndroidJNIModule.dll_1A38190BFA3DE7C8.mvfrm
Library\Bee\artifacts\mvdfrm\UnityEngine.AnimationModule.dll_387228A2F6230B16.mvfrm
Library\Bee\artifacts\mvdfrm\UnityEngine.ARModule.dll_46B85AEEF127FBD3.mvfrm
Library\Bee\artifacts\mvdfrm\UnityEngine.AssetBundleModule.dll_B272BF99EFC10104.mvfrm
Library\Bee\artifacts\mvdfrm\UnityEngine.AudioModule.dll_A994FF4BB99AB688.mvfrm
Library\Bee\artifacts\mvdfrm\UnityEngine.ClothModule.dll_107D5C4693B7956C.mvfrm
Library\Bee\artifacts\mvdfrm\UnityEngine.ClusterInputModule.dll_5D0D6AF84D529DF2.mvfrm
Library\Bee\artifacts\mvdfrm\UnityEngine.ClusterRendererModule.dll_A1DD1CC2B5C6ADAF.mvfrm
Library\Bee\artifacts\mvdfrm\UnityEngine.CoreModule.dll_99B0EF524360CCA1.mvfrm
Library\Bee\artifacts\mvdfrm\UnityEngine.CrashReportingModule.dll_948DEF4571070ED9.mvfrm
Library\Bee\artifacts\mvdfrm\UnityEngine.DirectorModule.dll_6EDDAA27BB06BAFE.mvfrm
Library\Bee\artifacts\mvdfrm\UnityEngine.dll_6D196B49CF8CDB24.mvfrm
Library\Bee\artifacts\mvdfrm\UnityEngine.DSPGraphModule.dll_742F0B912D678C1F.mvfrm
Library\Bee\artifacts\mvdfrm\UnityEngine.GameCenterModule.dll_44856326C07ED8B9.mvfrm
Library\Bee\artifacts\mvdfrm\UnityEngine.GIModule.dll_2581DEF92FB98524.mvfrm
Library\Bee\artifacts\mvdfrm\UnityEngine.GridModule.dll_77220B405BB56298.mvfrm
Library\Bee\artifacts\mvdfrm\UnityEngine.HotReloadModule.dll_B9BAE6A8D1562698.mvfrm
Library\Bee\artifacts\mvdfrm\UnityEngine.ImageConversionModule.dll_0DCF1A7337EB65A3.mvfrm
Library\Bee\artifacts\mvdfrm\UnityEngine.IMGUIModule.dll_E1F49EB27FCC4A69.mvfrm
Library\Bee\artifacts\mvdfrm\UnityEngine.InputLegacyModule.dll_43B7DAB887B2B6F5.mvfrm
Library\Bee\artifacts\mvdfrm\UnityEngine.InputModule.dll_100AC6FC2FD2DB2C.mvfrm
Library\Bee\artifacts\mvdfrm\UnityEngine.JSONSerializeModule.dll_D4329AEAEA0928FA.mvfrm
Library\Bee\artifacts\mvdfrm\UnityEngine.LocalizationModule.dll_9B5A354AE4CE90EB.mvfrm
Library\Bee\artifacts\mvdfrm\UnityEngine.NVIDIAModule.dll_36444A51BFE74F2D.mvfrm
Library\Bee\artifacts\mvdfrm\UnityEngine.ParticleSystemModule.dll_E7A03891DF189A67.mvfrm
Library\Bee\artifacts\mvdfrm\UnityEngine.PerformanceReportingModule.dll_80C45CCC9ABB4260.mvfrm
Library\Bee\artifacts\mvdfrm\UnityEngine.Physics2DModule.dll_85181893972002AB.mvfrm
Library\Bee\artifacts\mvdfrm\UnityEngine.PhysicsModule.dll_E9631D1687BE0259.mvfrm
Library\Bee\artifacts\mvdfrm\UnityEngine.ProfilerModule.dll_A123E35E5460420B.mvfrm
Library\Bee\artifacts\mvdfrm\UnityEngine.RuntimeInitializeOnLoadManagerInitializerModule.dll_2DA247EA172F4974.mvfrm
Library\Bee\artifacts\mvdfrm\UnityEngine.ScreenCaptureModule.dll_EE1A486FFE75555C.mvfrm
Library\Bee\artifacts\mvdfrm\UnityEngine.SharedInternalsModule.dll_91E05948AF1960F3.mvfrm
Library\Bee\artifacts\mvdfrm\UnityEngine.SpriteMaskModule.dll_2DB1D5B6E1EE6E33.mvfrm
Library\Bee\artifacts\mvdfrm\UnityEngine.SpriteShapeModule.dll_CBD3ECF4A563390E.mvfrm
Library\Bee\artifacts\mvdfrm\UnityEngine.StreamingModule.dll_ED0715F345AAC254.mvfrm
Library\Bee\artifacts\mvdfrm\UnityEngine.SubstanceModule.dll_C9B22A3C90FDC062.mvfrm
Library\Bee\artifacts\mvdfrm\UnityEngine.SubsystemsModule.dll_985F3C18B0365646.mvfrm
Library\Bee\artifacts\mvdfrm\UnityEngine.TerrainModule.dll_03A998855D7C4B47.mvfrm
Library\Bee\artifacts\mvdfrm\UnityEngine.TerrainPhysicsModule.dll_E81AE164F85B94F4.mvfrm
Library\Bee\artifacts\mvdfrm\UnityEngine.TextCoreFontEngineModule.dll_F8823997C6F914FF.mvfrm
Library\Bee\artifacts\mvdfrm\UnityEngine.TextCoreTextEngineModule.dll_406A7009567CCE1D.mvfrm
Library\Bee\artifacts\mvdfrm\UnityEngine.TextRenderingModule.dll_1759BA7AB5ACD551.mvfrm
Library\Bee\artifacts\mvdfrm\UnityEngine.TilemapModule.dll_A2A6000675392C50.mvfrm
Library\Bee\artifacts\mvdfrm\UnityEngine.TLSModule.dll_64BE5854FBCE94ED.mvfrm
Library\Bee\artifacts\mvdfrm\UnityEngine.UIElementsModule.dll_9C9D9D80B362923D.mvfrm
Library\Bee\artifacts\mvdfrm\UnityEngine.UIElementsNativeModule.dll_98B6B1B4EE302774.mvfrm
Library\Bee\artifacts\mvdfrm\UnityEngine.UIModule.dll_88B93418F051A2B6.mvfrm
Library\Bee\artifacts\mvdfrm\UnityEngine.UmbraModule.dll_2469AB6446C161FB.mvfrm
Library\Bee\artifacts\mvdfrm\UnityEngine.UNETModule.dll_2C57373B906FC21A.mvfrm
Library\Bee\artifacts\mvdfrm\UnityEngine.UnityAnalyticsModule.dll_073FA95B8B3FEC63.mvfrm
Library\Bee\artifacts\mvdfrm\UnityEngine.UnityConnectModule.dll_CAD079F19652CBD7.mvfrm
Library\Bee\artifacts\mvdfrm\UnityEngine.UnityCurlModule.dll_6B8EC9D46636FD03.mvfrm
Library\Bee\artifacts\mvdfrm\UnityEngine.UnityTestProtocolModule.dll_12AE80145F8E92F1.mvfrm
Library\Bee\artifacts\mvdfrm\UnityEngine.UnityWebRequestAssetBundleModule.dll_87ABC83C19FE2174.mvfrm
Library\Bee\artifacts\mvdfrm\UnityEngine.UnityWebRequestAudioModule.dll_F8C0B0AB21260CF8.mvfrm
Library\Bee\artifacts\mvdfrm\UnityEngine.UnityWebRequestModule.dll_1F6E221D42E00022.mvfrm
Library\Bee\artifacts\mvdfrm\UnityEngine.UnityWebRequestTextureModule.dll_7EC2F21434F071CD.mvfrm
Library\Bee\artifacts\mvdfrm\UnityEngine.UnityWebRequestWWWModule.dll_0B2CB565463C8A89.mvfrm
Library\Bee\artifacts\mvdfrm\UnityEngine.VehiclesModule.dll_E6A0A3A735308A99.mvfrm
Library\Bee\artifacts\mvdfrm\UnityEngine.VFXModule.dll_E59CF0C3D23BFE5A.mvfrm
Library\Bee\artifacts\mvdfrm\UnityEngine.VideoModule.dll_CE9E83B67C2CD22D.mvfrm
Library\Bee\artifacts\mvdfrm\UnityEngine.VirtualTexturingModule.dll_BD436623C6DEA7FF.mvfrm
Library\Bee\artifacts\mvdfrm\UnityEngine.VRModule.dll_DB8B5A9E920C282E.mvfrm
Library\Bee\artifacts\mvdfrm\UnityEngine.WindModule.dll_0FFFCA7AD4974B0A.mvfrm
Library\Bee\artifacts\mvdfrm\UnityEngine.XRModule.dll_0E4A1DA31B46758C.mvfrm
Library\Bee\artifacts\mvdfrm\Unity.Android.Gradle.dll_72CE33BAA4B6665E.mvfrm
Library\Bee\artifacts\mvdfrm\Unity.Android.Types.dll_DD2D9815DF9664BE.mvfrm
Library\Bee\artifacts\mvdfrm\UnityEditor.Android.Extensions.dll_A936E4A4309CB95E.mvfrm
Library\Bee\artifacts\mvdfrm\UnityEditor.iOS.Extensions.Common.dll_7C89DE4FBDC043BB.mvfrm
Library\Bee\artifacts\mvdfrm\UnityEditor.iOS.Extensions.dll_8DE7F691E625073A.mvfrm
Library\Bee\artifacts\mvdfrm\UnityEditor.iOS.Extensions.Xcode.dll_4779241F43F131C1.mvfrm
Library\Bee\artifacts\mvdfrm\UnityEditor.WindowsStandalone.Extensions.dll_A21E214A6CF2ED8A.mvfrm